…
Netflix sử dụng hệ thống đề xuất để dự đoán số lượng sao mà người dùng sẽ cho một bộ phim cụ thể. Một sao cho rằng đây không phải là một bộ phim hay, trong khi năm sao cho rằng đây là một bộ phim xuất sắc. Tại đây, chúng tôi cung cấp thông tin cơ bản về cách đưa ra những đề xuất này, được thúc đẩy bởi một số phương pháp tiếp cận được thực hiện bởi những người chiến thắng trong các thử thách Netflix.

Vào tháng 10 năm 2006, Netflix đưa ra một thách thức cho cộng đồng khoa học dữ liệu: cải thiện thuật toán đề xuất của chúng tôi thêm 10% và giành được một triệu đô la. Vào tháng 9 năm 2009, những người chiến thắng đã được công bố1. Bạn có thể đọc bản tóm tắt hay về cách kết hợp thuật toán chiến thắng tại đây: http://blog.echen.me/2011/10/24/winning-the-netflix-prize-a-summary/ và giải thích chi tiết hơn tại đây : https://www2.seas.gwu.edu/~simhaweb/champalg/cf/papers/KorenBellKor2009.pdf. Bây giờ chúng tôi sẽ chỉ cho bạn một số chiến lược phân tích dữ liệu được nhóm chiến thắng sử dụng.

22.1.1 Dữ liệu thấu kính phim
Dữ liệu Netflix không được công khai nhưng phòng nghiên cứu GroupLens2 đã tạo cơ sở dữ liệu của riêng họ với hơn 20 triệu xếp hạng cho hơn 27.000 phim bởi hơn 138.000 người dùng. Chúng tôi cung cấp một tập hợp con nhỏ của dữ liệu này thông qua gói dslabs:
```{r}
movielens |> as_tibble()
#> # A tibble: 100,004 × 7
#>   movieId title                      year genres userId rating timestamp
#>     <int> <chr>                     <int> <fct>   <int>  <dbl>     <int>
#> 1      31 Dangerous Minds            1995 Drama       1    2.5    1.26e9
#> 2    1029 Dumbo                      1941 Anima…      1    3      1.26e9
#> 3    1061 Sleepers                   1996 Thril…      1    3      1.26e9
#> 4    1129 Escape from New York       1981 Actio…      1    2      1.26e9
#> 5    1172 Cinema Paradiso (Nuovo c…  1989 Drama       1    4      1.26e9
#> # ℹ 99,999 more rows
```
…
