…
Vì vậy, chúng tôi báo cáo mức chênh lệch là 1,43% với sai số là 0,66%. Vào đêm bầu cử, chúng tôi phát hiện ra rằng tỷ lệ thực tế là 2,1%, nằm ngoài khoảng tin cậy 95%. Chuyện gì đã xảy ra thế?

Biểu đồ chênh lệch giá được báo cáo cho thấy có vấn đề:
```{r}
polls |> ggplot(aes(spread)) + geom_histogram(color = "black", binwidth = .01)
```
Dữ liệu dường như không được phân phối bình thường và sai số chuẩn dường như lớn hơn 0,0066232. Lý thuyết này không áp dụng được ở đây và trong phần tiếp theo chúng tôi sẽ mô tả một mô hình hữu ích dựa trên dữ liệu.

10.2 Ngoài mô hình lấy mẫu đơn giản
Lưu ý rằng dữ liệu đến từ nhiều người thăm dò khác nhau và một số người thực hiện nhiều cuộc thăm dò mỗi tuần:

```{r}
polls |> group_by(pollster) |> summarize(n())
#> # A tibble: 15 × 2
#>   pollster                                                   `n()`
#>   <fct>                                                      <int>
#> 1 ABC News/Washington Post                                       7
#> 2 Angus Reid Global                                              1
#> 3 CBS News/New York Times                                        2
#> 4 Fox News/Anderson Robbins Research/Shaw & Company Research     2
#> 5 IBD/TIPP                                                       8
#> # ℹ 10 more rows
```
…
```{r}
results |> arrange(abs(avg))
#> # A tibble: 47 × 4
#>   state               avg     sd     n
#>   <chr>             <dbl>  <dbl> <int>
#> 1 Florida         0.00356 0.0163     7
#> 2 North Carolina -0.0073  0.0306     9
#> 3 Ohio           -0.0104  0.0252     6
#> 4 Nevada          0.0169  0.0441     7
#> 5 Iowa           -0.0197  0.0437     3
#> # ℹ 42 more rows
```
…
```{r}
mu <- 0
tau <- 0.02
results |> mutate(sigma = sd/sqrt(n), 
                   B = sigma^2 / (sigma^2 + tau^2),
                   posterior_mean = B * mu + (1 - B) * avg,
                   posterior_se = sqrt(1/ (1/sigma^2 + 1/tau^2)))
#> # A tibble: 47 × 12
#>   state          avg       sd     n electoral_votes clinton trump others
#>   <chr>        <dbl>    <dbl> <int>           <int>   <dbl> <dbl>  <dbl>
#> 1 Alabama    -0.149  0.0253       3               9    34.4  62.1    3.6
#> 2 Arizona    -0.0326 0.0270       9              11    45.1  48.7    6.2
#> 3 Arkansas   -0.151  0.000990     2               6    33.7  60.6    5.8
#> 4 California  0.260  0.0387       5              55    61.7  31.6    6.7
#> 5 Colorado    0.0452 0.0295       7               9    48.2  43.3    8.6
#> # ℹ 42 more rows
#> # ℹ 4 more variables: sigma <dbl>, B <dbl>, posterior_mean <dbl>,
#> #   posterior_se <dbl>
```
…
